transcript
# vsim -c alu2_tb 
# Start time: 07:54:26 on May 07,2026
# ** Note: (vsim-3813) Design is being optimized due to module recompilation...
# ** Warning: alu2.v(109): (vopt-2576) [BSOB] - Bit-select into 'arith_res' is out of bounds.
# ** Warning: alu2.v(129): (vopt-2576) [BSOB] - Bit-select into 'arith_res' is out of bounds.
# //  Questa Sim
# //  Version 10.6c linux Jul 25 2017
# //
# //  Copyright 1991-2017 Mentor Graphics Corporation
# //  All Rights Reserved.
# //
# //  QuestaSim and its associated documentation contain trade
# //  secrets and commercial or financial information that are the property of
# //  Mentor Graphics Corporation and are privileged, confidential,
# //  and exempt from disclosure under the Freedom of Information Act,
# //  5 U.S.C. Section 552. Furthermore, this information
# //  is prohibited from disclosure under the Trade Secrets Act,
# //  18 U.S.C. Section 1905.
# //
# Loading work.alu2_tb(fast)
# T=0 | mode=0 cmd= 0 valid=0|rst=1 opa=  0 opb=  0 | res=    0 | of=0 c=0 err=0
# T=10 | mode=1 cmd= 0 valid=3|rst=0 opa=255 opb=255 | res=    0 | of=0 c=0 err=0
# T=15 | mode=1 cmd= 0 valid=3|rst=0 opa=255 opb=255 | res=  254 | of=0 c=x err=0
# T=20 | mode=1 cmd= 0 valid=0|rst=0 opa=255 opb=  0 | res=  254 | of=0 c=x err=0
# T=25 | mode=1 cmd= 0 valid=0|rst=0 opa=255 opb=  0 | res=  254 | of=0 c=0 err=1
# T=30 | mode=1 cmd= 0 valid=3|rst=0 opa=255 opb=  0 | res=  254 | of=0 c=0 err=1
# T=35 | mode=1 cmd= 0 valid=3|rst=0 opa=255 opb=  0 | res=  255 | of=0 c=x err=0
# T=40 | mode=1 cmd= 0 valid=2|rst=0 opa=255 opb=  0 | res=  255 | of=0 c=x err=0
# T=45 | mode=1 cmd= 0 valid=2|rst=0 opa=255 opb=  0 | res=  255 | of=0 c=0 err=1
# T=50 | mode=1 cmd= 1 valid=3|rst=1 opa=255 opb=255 | res=    0 | of=0 c=0 err=0
# T=60 | mode=1 cmd= 2 valid=3|rst=0 opa=255 opb=255 | res=    0 | of=0 c=0 err=0
# T=65 | mode=1 cmd= 2 valid=3|rst=0 opa=255 opb=255 | res=  254 | of=0 c=x err=0
# T=75 | mode=1 cmd= 2 valid=3|rst=0 opa=255 opb=255 | res=  255 | of=0 c=x err=0
# T=80 | mode=1 cmd= 3 valid=3|rst=0 opa=255 opb=255 | res=  255 | of=0 c=x err=0
# T=85 | mode=1 cmd= 3 valid=3|rst=0 opa=255 opb=255 | res=    0 | of=0 c=0 err=0
# T=95 | mode=1 cmd= 3 valid=3|rst=0 opa=255 opb=255 | res=  255 | of=0 c=0 err=0
# T=100 | mode=1 cmd= 4 valid=3|rst=0 opa=255 opb=255 | res=  255 | of=0 c=0 err=0
# T=105 | mode=1 cmd= 4 valid=3|rst=0 opa=255 opb=255 | res=  256 | of=0 c=0 err=0
# T=120 | mode=1 cmd= 5 valid=3|rst=0 opa=255 opb=255 | res=  256 | of=0 c=0 err=0
# T=125 | mode=1 cmd= 5 valid=3|rst=0 opa=255 opb=255 | res=  254 | of=0 c=0 err=0
# T=140 | mode=1 cmd= 6 valid=3|rst=0 opa=255 opb=255 | res=  254 | of=0 c=0 err=0
# T=145 | mode=1 cmd= 6 valid=3|rst=0 opa=255 opb=255 | res=  256 | of=0 c=0 err=0
# T=160 | mode=1 cmd= 7 valid=3|rst=0 opa=255 opb=255 | res=  256 | of=0 c=0 err=0
# T=165 | mode=1 cmd= 7 valid=3|rst=0 opa=255 opb=255 | res=  254 | of=0 c=0 err=0
# T=180 | mode=1 cmd= 8 valid=3|rst=0 opa=255 opb=255 | res=  254 | of=0 c=0 err=0
# T=200 | mode=1 cmd= 9 valid=3|rst=0 opa=255 opb=255 | res=  254 | of=0 c=0 err=0
# T=215 | mode=1 cmd= 9 valid=3|rst=0 opa=255 opb=255 | res=    0 | of=0 c=0 err=0
# T=260 | mode=1 cmd= 9 valid=3|rst=0 opa=254 opb=254 | res=    0 | of=0 c=0 err=0
# T=275 | mode=1 cmd= 9 valid=3|rst=0 opa=254 opb=254 | res=65025 | of=0 c=0 err=0
# T=300 | mode=1 cmd=10 valid=3|rst=0 opa=255 opb=255 | res=65025 | of=0 c=0 err=0
# T=315 | mode=1 cmd=10 valid=3|rst=0 opa=255 opb=255 | res=64514 | of=0 c=0 err=0
# T=360 | mode=1 cmd=10 valid=3|rst=0 opa=254 opb=254 | res=64514 | of=0 c=0 err=0
# T=375 | mode=1 cmd=10 valid=3|rst=0 opa=254 opb=254 | res=63496 | of=0 c=0 err=0
# T=400 | mode=1 cmd=11 valid=3|rst=0 opa= 17 opb=  3 | res=63496 | of=0 c=0 err=0
# T=405 | mode=1 cmd=11 valid=3|rst=0 opa= 17 opb=  3 | res=   20 | of=0 c=0 err=0
# T=420 | mode=1 cmd=11 valid=3|rst=0 opa=244 opb=242 | res=   20 | of=0 c=0 err=0
# T=425 | mode=1 cmd=11 valid=3|rst=0 opa=244 opb=242 | res=  230 | of=0 c=0 err=0
# T=430 | mode=1 cmd=12 valid=3|rst=0 opa= 17 opb=  3 | res=  230 | of=0 c=0 err=0
# T=435 | mode=1 cmd=12 valid=3|rst=0 opa= 17 opb=  3 | res=   14 | of=0 c=0 err=0
# T=450 | mode=1 cmd=12 valid=3|rst=0 opa=244 opb=242 | res=   14 | of=0 c=0 err=0
# T=455 | mode=1 cmd=12 valid=3|rst=0 opa=244 opb=242 | res=    2 | of=0 c=0 err=0
# T=460 | mode=1 cmd=13 valid=3|rst=0 opa= 17 opb=  3 | res=    2 | of=0 c=0 err=0
# T=465 | mode=1 cmd=13 valid=3|rst=0 opa= 17 opb=  3 | res=    0 | of=0 c=0 err=1
# T=480 | mode=1 cmd=13 valid=3|rst=0 opa=244 opb=242 | res=    0 | of=0 c=0 err=1
# T=490 | mode=0 cmd= 0 valid=3|rst=0 opa=255 opb=255 | res=    0 | of=0 c=0 err=1
# T=495 | mode=0 cmd= 0 valid=3|rst=0 opa=255 opb=255 | res=  255 | of=0 c=0 err=0
# T=500 | mode=0 cmd= 0 valid=0|rst=0 opa=255 opb=  0 | res=  255 | of=0 c=0 err=0
# T=505 | mode=0 cmd= 0 valid=0|rst=0 opa=255 opb=  0 | res=  255 | of=0 c=0 err=1
# T=510 | mode=0 cmd= 0 valid=3|rst=0 opa=255 opb=  0 | res=  255 | of=0 c=0 err=1
# T=515 | mode=0 cmd= 0 valid=3|rst=0 opa=255 opb=  0 | res=    0 | of=0 c=0 err=0
# T=520 | mode=0 cmd= 0 valid=2|rst=0 opa=255 opb=  0 | res=    0 | of=0 c=0 err=0
# T=525 | mode=0 cmd= 0 valid=2|rst=0 opa=255 opb=  0 | res=    0 | of=0 c=0 err=1
# T=530 | mode=0 cmd= 1 valid=3|rst=0 opa=255 opb=255 | res=    0 | of=0 c=0 err=1
# T=535 | mode=0 cmd= 1 valid=3|rst=0 opa=255 opb=255 | res=    0 | of=0 c=0 err=0
# T=540 | mode=0 cmd= 2 valid=3|rst=0 opa=255 opb=255 | res=    0 | of=0 c=0 err=0
# T=545 | mode=0 cmd= 2 valid=3|rst=0 opa=255 opb=255 | res=  255 | of=0 c=0 err=0
# T=560 | mode=0 cmd= 3 valid=3|rst=0 opa=255 opb=255 | res=  255 | of=0 c=0 err=0
# T=565 | mode=0 cmd= 3 valid=3|rst=0 opa=255 opb=255 | res=    0 | of=0 c=0 err=0
# T=580 | mode=0 cmd= 4 valid=3|rst=0 opa=255 opb=255 | res=    0 | of=0 c=0 err=0
# T=600 | mode=0 cmd= 5 valid=3|rst=0 opa=255 opb=255 | res=    0 | of=0 c=0 err=0
# T=605 | mode=0 cmd= 5 valid=3|rst=0 opa=255 opb=255 | res=  255 | of=0 c=0 err=0
# T=620 | mode=0 cmd= 6 valid=3|rst=0 opa=255 opb=255 | res=  255 | of=0 c=0 err=0
# T=625 | mode=0 cmd= 6 valid=3|rst=0 opa=255 opb=255 | res=    0 | of=0 c=0 err=0
# T=640 | mode=0 cmd= 7 valid=3|rst=0 opa=255 opb=255 | res=    0 | of=0 c=0 err=0
# T=660 | mode=0 cmd= 8 valid=3|rst=0 opa=255 opb=255 | res=    0 | of=0 c=0 err=0
# T=665 | mode=0 cmd= 8 valid=3|rst=0 opa=255 opb=255 | res=  127 | of=0 c=0 err=0
# T=680 | mode=0 cmd= 9 valid=3|rst=0 opa=255 opb=255 | res=  127 | of=0 c=0 err=0
# T=685 | mode=0 cmd= 9 valid=3|rst=0 opa=255 opb=255 | res=  254 | of=0 c=0 err=0
# T=740 | mode=0 cmd= 9 valid=3|rst=0 opa=254 opb=254 | res=  254 | of=0 c=0 err=0
# T=745 | mode=0 cmd= 9 valid=3|rst=0 opa=254 opb=254 | res=  252 | of=0 c=0 err=0
# T=780 | mode=0 cmd=10 valid=3|rst=0 opa=255 opb=255 | res=  252 | of=0 c=0 err=0
# T=785 | mode=0 cmd=10 valid=3|rst=0 opa=255 opb=255 | res=  127 | of=0 c=0 err=0
# T=840 | mode=0 cmd=10 valid=3|rst=0 opa=254 opb=254 | res=  127 | of=0 c=0 err=0
# T=880 | mode=0 cmd=11 valid=3|rst=0 opa= 17 opb=  3 | res=  127 | of=0 c=0 err=0
# T=885 | mode=0 cmd=11 valid=3|rst=0 opa= 17 opb=  3 | res=    6 | of=0 c=0 err=0
# T=900 | mode=0 cmd=11 valid=3|rst=0 opa=244 opb=242 | res=    6 | of=0 c=0 err=0
# T=905 | mode=0 cmd=11 valid=3|rst=0 opa=244 opb=242 | res=  228 | of=0 c=0 err=0
# T=910 | mode=0 cmd=12 valid=3|rst=0 opa= 17 opb=  3 | res=  228 | of=0 c=0 err=0
# T=915 | mode=0 cmd=12 valid=3|rst=0 opa= 17 opb=  3 | res=  136 | of=0 c=0 err=0
# T=920 | mode=0 cmd=12 valid=3|rst=0 opa=244 opb= 82 | res=  136 | of=0 c=0 err=0
# T=925 | mode=0 cmd=12 valid=3|rst=0 opa=244 opb= 82 | res=  211 | of=0 c=0 err=1
# T=930 | mode=0 cmd=12 valid=3|rst=0 opa=244 opb=  8 | res=  211 | of=0 c=0 err=1
# T=935 | mode=0 cmd=12 valid=3|rst=0 opa=244 opb=  8 | res=  244 | of=0 c=0 err=1
# T=940 | mode=0 cmd=13 valid=3|rst=0 opa= 17 opb=  3 | res=  244 | of=0 c=0 err=1
# T=945 | mode=0 cmd=13 valid=3|rst=0 opa= 17 opb=  3 | res=   34 | of=0 c=0 err=0
# T=950 | mode=0 cmd=13 valid=3|rst=0 opa=244 opb= 82 | res=   34 | of=0 c=0 err=0
# T=955 | mode=0 cmd=13 valid=3|rst=0 opa=244 opb= 82 | res=   61 | of=0 c=0 err=1
# T=960 | mode=0 cmd=13 valid=3|rst=0 opa=244 opb=  8 | res=   61 | of=0 c=0 err=1
# T=965 | mode=0 cmd=13 valid=3|rst=0 opa=244 opb=  8 | res=  244 | of=0 c=0 err=1
# ** Note: $finish    : alu2_tb.v(182)
#    Time: 980 ps  Iteration: 0  Instance: /alu2_tb
# End time: 07:54:30 on May 07,2026, Elapsed time: 0:00:04
# Errors: 0, Warnings: 2
