transcript
# vsim -c alu_tb 
# Start time: 13:46:23 on May 09,2026
# ** Note: (vsim-3813) Design is being optimized due to module recompilation...
# //  Questa Sim
# //  Version 10.6c linux Jul 25 2017
# //
# //  Copyright 1991-2017 Mentor Graphics Corporation
# //  All Rights Reserved.
# //
# //  QuestaSim and its associated documentation contain trade
# //  secrets and commercial or financial information that are the property of
# //  Mentor Graphics Corporation and are privileged, confidential,
# //  and exempt from disclosure under the Freedom of Information Act,
# //  5 U.S.C. Section 552. Furthermore, this information
# //  is prohibited from disclosure under the Trade Secrets Act,
# //  18 U.S.C. Section 1905.
# //
# Loading work.alu_tb(fast)
# 
# === Testing Arithmetic Operations (MODE=1) ===
# [PASS]                                                                              ADD: OPA=0x0f OPB=0x11 CMD=0x0
# [PASS]                                                                   ADD (overflow): OPA=0xff OPB=0x01 CMD=0x0
# [PASS]                                                                     add_both_min: OPA=0x00 OPB=0x00 CMD=0x0
# [PASS]                                                                      add_min_max: OPA=0x00 OPB=0xff CMD=0x0
# [PASS]                                                                      add_max_max: OPA=0xff OPB=0xff CMD=0x0
# [PASS]                                                                              SUB: OPA=0x20 OPB=0x10 CMD=0x1
# [PASS]                                                                      SUB_min_min: OPA=0x00 OPB=0x00 CMD=0x1
# [PASS]                                                                  SUB (underflow): OPA=0x00 OPB=0x01 CMD=0x1
# [PASS]                                                                      SUB_max_max: OPA=0xff OPB=0xff CMD=0x1
# [PASS]                                                                          ADD_CIN: OPA=0xfe OPB=0x01 CMD=0x2
# [PASS]                                                                          ADD_CIN: OPA=0x00 OPB=0x00 CMD=0x2
# [PASS]                                                                          ADD_CIN: OPA=0xff OPB=0x01 CMD=0x2
# [PASS]                                                                          SUB_CIN: OPA=0x01 OPB=0x01 CMD=0x3
# [PASS]                                                                            INC_A: OPA=0x0a OPB=0x00 CMD=0x4
# [PASS]                                                                            INC_A: OPA=0xff OPB=0x00 CMD=0x4
# [PASS]                                                                            INC_A: OPA=0x00 OPB=0x00 CMD=0x4
# [PASS]                                                                            DEC_A: OPA=0x0a OPB=0x00 CMD=0x5
# [PASS]                                                                            DEC_A: OPA=0x00 OPB=0x00 CMD=0x5
# [PASS]                                                                            INC_B: OPA=0x00 OPB=0x0a CMD=0x6
# [PASS]                                                                            INC_B: OPA=0x00 OPB=0xff CMD=0x6
# [PASS]                                                                            INC_B: OPA=0x00 OPB=0x00 CMD=0x6
# [PASS]                                                                            DEC_B: OPA=0x00 OPB=0x0a CMD=0x7
# [PASS]                                                                            DEC_B: OPA=0x00 OPB=0x00 CMD=0x7
# [PASS]                                                                      CMP (equal): OPA=0x10 OPB=0x10 CMD=0x8
# [PASS]                                                                    CMP (greater): OPA=0x20 OPB=0x10 CMD=0x8
# [PASS]                                                                       CMP (less): OPA=0x10 OPB=0x20 CMD=0x8
# [PASS]                                                                 MUL1(BOTH_zEROS): OPA=0x00 OPB=0x00 CMD=0x9
# [FAIL]                                                                  MUL1(BOTH MAX ): OPA=0xff OPB=0xff CMD=0x9
#   DUT: RES=0x0000 COUT=0 OFLOW=0 G=0 E=0 L=0 ERR=0
#   REF: RES=0x0001 COUT=0 OFLOW=0 G=0 E=0 L=0 ERR=0
# [PASS]                                                                             MUL1: OPA=0x00 OPB=0xff CMD=0x9
# [FAIL]                                                                             MUL1: OPA=0xff OPB=0x00 CMD=0x9
#   DUT: RES=0x0000 COUT=0 OFLOW=0 G=0 E=0 L=0 ERR=0
#   REF: RES=0x0100 COUT=0 OFLOW=0 G=0 E=0 L=0 ERR=0
# [FAIL]                                                                             MUL1: OPA=0x01 OPB=0x01 CMD=0x9
#   DUT: RES=0x0000 COUT=0 OFLOW=0 G=0 E=0 L=0 ERR=0
#   REF: RES=0x0100 COUT=0 OFLOW=0 G=0 E=0 L=0 ERR=0
# [FAIL]                                                                             MUL1: OPA=0x0f OPB=0x0f CMD=0x9
#   DUT: RES=0x0000 COUT=0 OFLOW=0 G=0 E=0 L=0 ERR=0
#   REF: RES=0x0004 COUT=0 OFLOW=0 G=0 E=0 L=0 ERR=0
# [FAIL]                                                                             MUL1: OPA=0xaa OPB=0x55 CMD=0x9
#   DUT: RES=0x0000 COUT=0 OFLOW=0 G=0 E=0 L=0 ERR=0
#   REF: RES=0x0100 COUT=0 OFLOW=0 G=0 E=0 L=0 ERR=0
# [FAIL]                                                                             MUL2: OPA=0x00 OPB=0x00 CMD=0xa
#   DUT: RES=0x0000 COUT=0 OFLOW=0 G=0 E=0 L=0 ERR=0
#   REF: RES=0x3972 COUT=0 OFLOW=0 G=0 E=0 L=0 ERR=0
# [PASS]                                                                             MUL2: OPA=0x80 OPB=0x02 CMD=0xa
# [PASS]                                                                             MUL2: OPA=0xff OPB=0x00 CMD=0xa
# [PASS]                                                                             MUL2: OPA=0xff OPB=0x01 CMD=0xa
# [PASS]                                                                             MUL2: OPA=0xff OPB=0xff CMD=0xa
# [PASS]                                                                         SIGN_ADD: OPA=0x00 OPB=0x00 CMD=0xb
# [FAIL]                                                                         SIGN_aDD: OPA=0x40 OPB=0x40 CMD=0xb
#   DUT: RES=0x0080 COUT=0 OFLOW=1 G=0 E=1 L=0 ERR=0
#   REF: RES=0xff80 COUT=0 OFLOW=1 G=0 E=1 L=0 ERR=0
# [FAIL]                                                                         SIGN_ADD: OPA=0x7f OPB=0x01 CMD=0xb
#   DUT: RES=0x0080 COUT=0 OFLOW=1 G=1 E=0 L=0 ERR=0
#   REF: RES=0xff80 COUT=0 OFLOW=1 G=1 E=0 L=0 ERR=0
# [FAIL]                                                                         SIGN_ADD: OPA=0x7f OPB=0x7f CMD=0xb
#   DUT: RES=0x00fe COUT=0 OFLOW=1 G=0 E=1 L=0 ERR=0
#   REF: RES=0xfffe COUT=0 OFLOW=1 G=0 E=1 L=0 ERR=0
# [PASS]                                                                         SIGN_aDD: OPA=0x01 OPB=0x01 CMD=0xb
# [PASS]                                                                         SIGN_ADD: OPA=0x7f OPB=0x00 CMD=0xb
# [FAIL]                                                                         SIGN_aDD: OPA=0x80 OPB=0x80 CMD=0xb
#   DUT: RES=0xff00 COUT=0 OFLOW=1 G=0 E=1 L=0 ERR=0
#   REF: RES=0x0000 COUT=0 OFLOW=1 G=0 E=1 L=0 ERR=0
# [PASS]                                                                         SIGN_ADD: OPA=0xff OPB=0xff CMD=0xb
# [FAIL]                                                                         SIGN_ADD: OPA=0x80 OPB=0xff CMD=0xb
#   DUT: RES=0xff7f COUT=0 OFLOW=1 G=0 E=0 L=1 ERR=0
#   REF: RES=0x007f COUT=0 OFLOW=1 G=0 E=0 L=1 ERR=0
# [PASS]                                                                         SIGN_aDD: OPA=0xfe OPB=0xff CMD=0xb
# [PASS]                                                                         SIGN_ADD: OPA=0x7f OPB=0x80 CMD=0xb
# [PASS]                                                                         SIGN_ADD: OPA=0x7f OPB=0xff CMD=0xb
# [PASS]                                                                         SIGN_aDD: OPA=0x01 OPB=0xff CMD=0xb
# [PASS]                                                                         SIGN_SUB: OPA=0x7f OPB=0x01 CMD=0xc
# [FAIL]                                                                         SIGN_SUB: OPA=0x80 OPB=0x01 CMD=0xc
#   DUT: RES=0xff7f COUT=0 OFLOW=1 G=0 E=0 L=1 ERR=0
#   REF: RES=0x007f COUT=0 OFLOW=1 G=0 E=0 L=1 ERR=0
# [FAIL]                                                                         SIGN_SUB: OPA=0x7f OPB=0xff CMD=0xc
#   DUT: RES=0x0080 COUT=0 OFLOW=1 G=1 E=0 L=0 ERR=0
#   REF: RES=0xff80 COUT=0 OFLOW=1 G=1 E=0 L=0 ERR=0
# [FAIL]                                                                         SIGN_SUB: OPA=0x80 OPB=0x01 CMD=0xc
#   DUT: RES=0xff7f COUT=0 OFLOW=1 G=0 E=0 L=1 ERR=0
#   REF: RES=0x007f COUT=0 OFLOW=1 G=0 E=0 L=1 ERR=0
# [PASS]                                                                         SIGN_SUB: OPA=0x00 OPB=0x01 CMD=0xc
# [PASS]                                                                         SIGN_SUB: OPA=0x00 OPB=0xff CMD=0xc
# [PASS]                                                                         SIGN_SUB: OPA=0x01 OPB=0x01 CMD=0xc
# [PASS]                                                                         SIGN_SUB: OPA=0x80 OPB=0x80 CMD=0xc
# [PASS]                                                                 CMD ABOVE RANGE : OPA=0x80 OPB=0x80 CMD=0xd
# [FAIL]                                                                          ADD_ERR: OPA=0x0f OPB=0x11 CMD=0x0
#   DUT: RES=0x0020 COUT=0 OFLOW=0 G=0 E=0 L=0 ERR=1
#   REF: RES=0x0000 COUT=0 OFLOW=0 G=0 E=0 L=0 ERR=1
# [FAIL]                                                                           SUBERR: OPA=0x20 OPB=0x10 CMD=0x1
#   DUT: RES=0x0010 COUT=0 OFLOW=0 G=0 E=0 L=0 ERR=1
#   REF: RES=0x0000 COUT=0 OFLOW=0 G=0 E=0 L=0 ERR=0
# [FAIL]                                                                      ADD_CIN ERR: OPA=0xfe OPB=0x01 CMD=0x2
#   DUT: RES=0x0100 COUT=1 OFLOW=0 G=0 E=0 L=0 ERR=1
#   REF: RES=0x0000 COUT=0 OFLOW=0 G=0 E=0 L=0 ERR=1
# [FAIL]                                                                      SUB_CIN_ERR: OPA=0x01 OPB=0x01 CMD=0x3
#   DUT: RES=0xffff COUT=0 OFLOW=1 G=0 E=0 L=0 ERR=1
#   REF: RES=0x0000 COUT=0 OFLOW=0 G=0 E=0 L=0 ERR=0
# [FAIL]                                                                        INC_A_ERR: OPA=0x0a OPB=0x00 CMD=0x4
#   DUT: RES=0x000b COUT=0 OFLOW=0 G=0 E=0 L=0 ERR=1
#   REF: RES=0x000b COUT=0 OFLOW=0 G=0 E=0 L=0 ERR=0
# [FAIL]                                                                        DEC_A_ERR: OPA=0x0a OPB=0x00 CMD=0x5
#   DUT: RES=0x0009 COUT=0 OFLOW=0 G=0 E=0 L=0 ERR=1
#   REF: RES=0x0009 COUT=0 OFLOW=0 G=0 E=0 L=0 ERR=0
# [FAIL]                                                                        DEC_B_ERR: OPA=0x0a OPB=0x00 CMD=0x7
#   DUT: RES=0xffff COUT=0 OFLOW=0 G=0 E=0 L=0 ERR=1
#   REF: RES=0xffff COUT=0 OFLOW=0 G=0 E=0 L=0 ERR=0
# [FAIL]                                                                        INC_B_ERR: OPA=0x00 OPB=0x00 CMD=0x6
#   DUT: RES=0x0001 COUT=0 OFLOW=0 G=0 E=0 L=0 ERR=1
#   REF: RES=0x0001 COUT=0 OFLOW=0 G=0 E=0 L=0 ERR=0
# [FAIL]                                                                          CMP_ERR: OPA=0x10 OPB=0x20 CMD=0x8
#   DUT: RES=0x0000 COUT=0 OFLOW=0 G=0 E=0 L=1 ERR=1
#   REF: RES=0x0000 COUT=0 OFLOW=0 G=0 E=0 L=0 ERR=0
# [PASS]                                                                         MUL1_ERR: OPA=0x00 OPB=0xff CMD=0x9
# [PASS]                                                                         MUL2_ERR: OPA=0xff OPB=0xff CMD=0xa
# [FAIL]                                                                     SIGN_aDD_ERR: OPA=0x80 OPB=0x80 CMD=0xb
#   DUT: RES=0xff00 COUT=0 OFLOW=1 G=0 E=1 L=0 ERR=1
#   REF: RES=0x0000 COUT=0 OFLOW=0 G=0 E=0 L=0 ERR=1
# [FAIL]                                                                     SIGN_SUB_ERR: OPA=0x7f OPB=0x01 CMD=0xc
#   DUT: RES=0x007e COUT=0 OFLOW=0 G=1 E=0 L=0 ERR=1
#   REF: RES=0x0000 COUT=0 OFLOW=0 G=0 E=0 L=0 ERR=1
# 
# === Testing Logical Operations (MODE=0) ===
# [PASS]                                                                              AND: OPA=0xf0 OPB=0x0f CMD=0x0
# [FAIL]                                                                             NAND: OPA=0xf0 OPB=0x0f CMD=0x1
#   DUT: RES=0xffff COUT=0 OFLOW=0 G=0 E=0 L=0 ERR=0
#   REF: RES=0x00ff COUT=0 OFLOW=0 G=0 E=0 L=0 ERR=0
# [PASS]                                                                               OR: OPA=0xf0 OPB=0x0f CMD=0x2
# [FAIL]                                                                              NOR: OPA=0xf0 OPB=0x0f CMD=0x3
#   DUT: RES=0xff00 COUT=0 OFLOW=0 G=0 E=0 L=0 ERR=0
#   REF: RES=0x0000 COUT=0 OFLOW=0 G=0 E=0 L=0 ERR=0
# [PASS]                                                                              XOR: OPA=0xaa OPB=0x55 CMD=0x4
# [FAIL]                                                                             XNOR: OPA=0xaa OPB=0x55 CMD=0x5
#   DUT: RES=0xff00 COUT=0 OFLOW=0 G=0 E=0 L=0 ERR=0
#   REF: RES=0x0000 COUT=0 OFLOW=0 G=0 E=0 L=0 ERR=0
# [FAIL]                                                                            NOT_A: OPA=0xf0 OPB=0x00 CMD=0x6
#   DUT: RES=0xff0f COUT=0 OFLOW=0 G=0 E=0 L=0 ERR=0
#   REF: RES=0x000f COUT=0 OFLOW=0 G=0 E=0 L=0 ERR=0
# [FAIL]                                                                            NOT_B: OPA=0x00 OPB=0xf0 CMD=0x7
#   DUT: RES=0xff0f COUT=0 OFLOW=0 G=0 E=0 L=0 ERR=0
#   REF: RES=0x000f COUT=0 OFLOW=0 G=0 E=0 L=0 ERR=0
# [PASS]                                                                           SHR1_A: OPA=0xaa OPB=0x00 CMD=0x8
# [PASS]                                                                           SHL1_A: OPA=0x55 OPB=0x00 CMD=0x9
# [PASS]                                                                           SHR1_B: OPA=0x00 OPB=0xaa CMD=0xa
# [PASS]                                                                           SHL1_B: OPA=0x00 OPB=0x55 CMD=0xb
# [PASS]                                                                          ROL_A_B: OPA=0xaa OPB=0x03 CMD=0xc
# [PASS]                                                                          ROR_A_B: OPA=0xaa OPB=0x02 CMD=0xd
# [PASS]                                                                 CMD ABOVE RANGE : OPA=0xaa OPB=0x02 CMD=0xe
# [FAIL]                                                              ROL_ERR_SHIFT_RANGE: OPA=0xaa OPB=0x08 CMD=0xc
#   DUT: RES=0x00aa COUT=0 OFLOW=0 G=0 E=0 L=0 ERR=1
#   REF: RES=0x0000 COUT=0 OFLOW=0 G=0 E=0 L=0 ERR=1
# [PASS]                                                              ROR_ERR_SHIFT_RANGE: OPA=0xaa OPB=0x09 CMD=0xd
# 
# === TEST SUMMARY ===
# Total Tests: 90
# PASS: 59
# FAIL: 31
# 
# *** SOME TESTS FAILED ***
# 
# ** Note: $finish    : alu_tb.v(91)
#    Time: 3715 ns  Iteration: 0  Instance: /alu_tb
# End time: 13:46:26 on May 09,2026, Elapsed time: 0:00:03
# Errors: 0, Warnings: 0
