transcript
# vsim -c tb_alu1 
# Start time: 09:38:55 on May 06,2026
# ** Note: (vsim-3812) Design is being optimized...
# ** Warning: alu1.v(77): (vopt-2576) [BSOB] - Bit-select into 'arith_res' is out of bounds.
# ** Warning: alu1.v(96): (vopt-2576) [BSOB] - Bit-select into 'arith_res' is out of bounds.
# //  Questa Sim
# //  Version 10.6c linux Jul 25 2017
# //
# //  Copyright 1991-2017 Mentor Graphics Corporation
# //  All Rights Reserved.
# //
# //  QuestaSim and its associated documentation contain trade
# //  secrets and commercial or financial information that are the property of
# //  Mentor Graphics Corporation and are privileged, confidential,
# //  and exempt from disclosure under the Freedom of Information Act,
# //  5 U.S.C. Section 552. Furthermore, this information
# //  is prohibited from disclosure under the Trade Secrets Act,
# //  18 U.S.C. Section 1905.
# //
# Loading work.tb_alu1(fast)
# T=0 | mode=0 cmd= 0 | opa=  0 opb=  0 | res=    0 | of=0 c=0 err=0
# T=10000 | mode=1 cmd= 0 | opa=  0 opb=  0 | res=    0 | of=0 c=0 err=0
# T=15000 | mode=1 cmd= 0 | opa= 10 opb=  5 | res=    0 | of=0 c=0 err=0
# T=25000 | mode=1 cmd= 1 | opa= 20 opb=  8 | res=   15 | of=1 c=x err=0
# T=35000 | mode=1 cmd= 2 | opa= 10 opb=  5 | res=   12 | of=0 c=0 err=0
# T=45000 | mode=1 cmd= 3 | opa= 20 opb=  8 | res=   16 | of=0 c=x err=0
# T=55000 | mode=1 cmd= 4 | opa= 15 opb=  0 | res=   11 | of=0 c=0 err=0
# T=65000 | mode=1 cmd= 5 | opa= 15 opb=  0 | res=   16 | of=0 c=0 err=0
# T=75000 | mode=1 cmd= 6 | opa=  0 opb= 15 | res=   14 | of=0 c=0 err=0
# T=85000 | mode=1 cmd= 7 | opa=  0 opb= 15 | res=   16 | of=0 c=0 err=0
# T=95000 | mode=1 cmd= 8 | opa= 25 opb= 25 | res=   14 | of=0 c=0 err=0
# T=105000 | mode=1 cmd= 9 | opa=  3 opb=  4 | res=    0 | of=0 c=0 err=0
# T=145000 | mode=1 cmd= 9 | opa=  3 opb=  4 | res=   20 | of=0 c=0 err=0
# T=155000 | mode=1 cmd=10 | opa=  3 opb=  5 | res=    0 | of=0 c=0 err=0
# T=185000 | mode=1 cmd=10 | opa=  3 opb=  5 | res=   20 | of=0 c=0 err=0
# T=195000 | mode=1 cmd=10 | opa=  3 opb=  5 | res=    0 | of=0 c=0 err=0
# T=205000 | mode=1 cmd=11 | opa=127 opb=  1 | res=    0 | of=0 c=0 err=0
# T=215000 | mode=1 cmd=12 | opa=128 opb=  1 | res=  128 | of=1 c=0 err=0
# T=225000 | mode=0 cmd= 0 | opa=170 opb=204 | res=    1 | of=0 c=0 err=0
# T=235000 | mode=0 cmd= 1 | opa=170 opb=204 | res=  136 | of=0 c=0 err=0
# T=245000 | mode=0 cmd= 2 | opa=170 opb=204 | res=  119 | of=0 c=0 err=0
# T=255000 | mode=0 cmd= 3 | opa=170 opb=204 | res=  238 | of=0 c=0 err=0
# T=265000 | mode=0 cmd= 4 | opa=170 opb=204 | res=   17 | of=0 c=0 err=0
# T=275000 | mode=0 cmd= 5 | opa=170 opb=204 | res=  102 | of=0 c=0 err=0
# T=285000 | mode=0 cmd= 6 | opa=170 opb=  0 | res=  153 | of=0 c=0 err=0
# T=295000 | mode=0 cmd= 7 | opa=  0 opb=204 | res=   85 | of=0 c=0 err=0
# T=305000 | mode=0 cmd= 8 | opa=240 opb=  0 | res=   51 | of=0 c=0 err=0
# T=315000 | mode=0 cmd= 9 | opa=240 opb=  0 | res=  120 | of=0 c=0 err=0
# T=325000 | mode=0 cmd=10 | opa=  0 opb= 15 | res=  224 | of=0 c=0 err=0
# T=335000 | mode=0 cmd=11 | opa=  0 opb= 15 | res=    7 | of=0 c=0 err=0
# T=345000 | mode=0 cmd=12 | opa=177 opb=  2 | res=   30 | of=0 c=0 err=0
# T=355000 | mode=0 cmd=13 | opa=177 opb=  2 | res=  198 | of=0 c=0 err=0
# T=365000 | mode=1 cmd= 0 | opa= 10 opb=  5 | res=    0 | of=0 c=0 err=1
# T=375000 | mode=1 cmd= 0 | opa= 10 opb=  5 | res=    0 | of=0 c=0 err=0
# ** Note: $finish    : tb_alu.v(136)
#    Time: 425 ns  Iteration: 0  Instance: /tb_alu1
# End time: 09:38:59 on May 06,2026, Elapsed time: 0:00:04
# Errors: 0, Warnings: 2
