src/test_bench/alu_test.vcd
$date
	Sat May  9 22:22:36 2026
$end
$version
	QuestaSim Version 10.6c
$end
$timescale
	1ps
$end

$scope module alu_tb $end
$var wire 1 ! RES_dut [15] $end
$var wire 1 " RES_dut [14] $end
$var wire 1 # RES_dut [13] $end
$var wire 1 $ RES_dut [12] $end
$var wire 1 % RES_dut [11] $end
$var wire 1 & RES_dut [10] $end
$var wire 1 ' RES_dut [9] $end
$var wire 1 ( RES_dut [8] $end
$var wire 1 ) RES_dut [7] $end
$var wire 1 * RES_dut [6] $end
$var wire 1 + RES_dut [5] $end
$var wire 1 , RES_dut [4] $end
$var wire 1 - RES_dut [3] $end
$var wire 1 . RES_dut [2] $end
$var wire 1 / RES_dut [1] $end
$var wire 1 0 RES_dut [0] $end
$var wire 1 1 COUT_dut $end
$var wire 1 2 OFLOW_dut $end
$var wire 1 3 G_dut $end
$var wire 1 4 E_dut $end
$var wire 1 5 L_dut $end
$var wire 1 6 ERR_dut $end

$scope task test_arithmetic $end
$upscope $end

$scope task test_logical $end
$upscope $end

$scope task apply_test $end
$upscope $end

$scope function compare_outputs $end
$upscope $end

$scope task display_mismatch $end
$upscope $end

$scope module dut $end
$var parameter 32 7 width $end
$var parameter 32 8 cwidth $end
$var wire 1 9 clk $end
$var wire 1 : rst $end
$var wire 1 ; mode $end
$var wire 1 < ce $end
$var wire 1 = cin $end
$var wire 1 > inp_valid [1] $end
$var wire 1 ? inp_valid [0] $end
$var wire 1 @ opa [7] $end
$var wire 1 A opa [6] $end
$var wire 1 B opa [5] $end
$var wire 1 C opa [4] $end
$var wire 1 D opa [3] $end
$var wire 1 E opa [2] $end
$var wire 1 F opa [1] $end
$var wire 1 G opa [0] $end
$var wire 1 H opb [7] $end
$var wire 1 I opb [6] $end
$var wire 1 J opb [5] $end
$var wire 1 K opb [4] $end
$var wire 1 L opb [3] $end
$var wire 1 M opb [2] $end
$var wire 1 N opb [1] $end
$var wire 1 O opb [0] $end
$var wire 1 P cmd [3] $end
$var wire 1 Q cmd [2] $end
$var wire 1 R cmd [1] $end
$var wire 1 S cmd [0] $end
$var reg 1 T g $end
$var reg 1 U l $end
$var reg 1 V e $end
$var reg 1 W g1 $end
$var reg 1 X l1 $end
$var reg 1 Y e1 $end
$var wire 1 1 cout $end
$var wire 1 2 oflow $end
$var reg 1 Z err $end
$var reg 16 [ res [15:0] $end
$var reg 4 \ cmdo [3:0] $end
$var reg 16 ] res1 [15:0] $end
$var reg 1 ^ mg $end
$var reg 1 _ i0 $end
$var reg 16 ` s0 [15:0] $end
$var reg 2 a count [1:0] $end
$var reg 1 b err1 $end
$upscope $end
$upscope $end
$enddefinitions $end
#0
$dumpvars
0T
0U
0V
0W
0X
0Y
0Z
b0 [
b0 \
b0 ]
0^
0_
b0 `
bx a
0b
b1000 7
b100 8
00
0/
0.
0-
0,
0+
0*
0)
0(
0'
0&
0%
0$
0#
0"
0!
01
02
03
04
05
06
0=
0O
0N
0M
0L
0K
0J
0I
0H
0G
0F
0E
0D
0C
0B
0A
0@
1<
0S
0R
0Q
0P
0;
0?
0>
1:
09
$end
#5000
19
0:
#10000
09
#15000
19
1;
1?
1>
1O
1N
1G
1E
b0 a
1b
#20000
09
#25000
19
0<
1S
0N
1M
1K
1I
0G
1F
0E
1D
1B
1@
b1000 ]
0b
1Z
16
#30000
09
#35000
19
0Z
06
#40000
09
#45000
19
1<
#50000
09
#55000
19
b0 ]
b1000 [
b1 \
b1010101 ]
1-
#60000
09
#65000
19
1N
0M
0K
0I
0D
0B
0@
0S
1R
1P
b0 ]
b1010101 [
b1010101 ]
10
1.
0-
1,
1*
#70000
09
#75000
19
0O
0F
1E
b0 ]
b1010 \
b1100 `
b1 a
#80000
09
#85000
19
1O
0N
1G
0E
0R
0P
b0 `
b0 [
b0 a
b1100 ]
b10 a
00
0.
0,
0*
#90000
09
#95000
19
0O
1N
0G
1D
1R
1P
b0 ]
b1100 [
b0 a
b0 \
b10 ]
1.
1-
#100000
09
#105000
19
b0 ]
b10 [
b1010 \
b100000 `
b1 a
1/
0.
0-
#110000
09
#115000
19
b0 `
b0 [
b0 a
b100000 ]
b10 a
0/
#120000
09
#125000
19
1O
1F
0D
b0 ]
b100000 [
b0 a
b100000 `
b1 a
1+
#130000
09
#135000
19
b0 `
b0 [
b0 a
b100000 ]
b10 a
0R
0P
0N
1K
1G
1E
1D
0+
#140000
09
#145000
19
b0 ]
b100000 [
b0 a
b0 \
b100000 ]
1+
#150000
09
#155000
19
b0 ]
b100000 ]
#160000
09
#165000
19
b0 ]
b100000 ]
#170000
09
#175000
19
b0 ]
b100000 ]
0K
1C
1B
1A
1@
#180000
09
#185000
19
b0 ]
b100000000 ]
11
#190000
09
#195000
19
b0 ]
b100000000 [
b100000000 ]
0+
1(
#200000
09
#205000
19
b0 ]
b100000000 ]
#210000
09
#215000
19
b0 ]
b100000000 ]
0O
0G
0F
0E
0D
0C
0B
0A
0@
#220000
09
#225000
19
b0 ]
01
#230000
09
#235000
19
b0 [
0(
#240000
09
#245000
19
#250000
09
#255000
19
1O
1N
1M
1L
1K
1J
1I
1H
#260000
09
#265000
19
b11111111 ]
#270000
09
#275000
19
b0 ]
b11111111 [
b11111111 ]
10
1/
1.
1-
1,
1+
1*
1)
#280000
09
#285000
19
b0 ]
b11111111 ]
#290000
09
#295000
19
b0 ]
b11111111 ]
1G
1F
1E
1D
1C
1B
1A
1@
#300000
09
#305000
19
b0 ]
b111111110 ]
11
#310000
09
#315000
19
b0 ]
b111111110 [
b111111110 ]
00
1(
#320000
09
#325000
19
b0 ]
b111111110 ]
#330000
09
#335000
19
b0 ]
b111111110 ]
1S
0O
0N
0M
0L
0J
0I
0H
0G
0F
0E
0D
0C
0A
0@
01
#340000
09
#345000
19
b0 ]
b1 \
b10000 ]
#350000
09
#355000
19
b0 ]
b10000 [
b10000 ]
0/
0.
0-
0+
0*
0)
0(
#360000
09
#365000
19
b0 ]
b10000 ]
#370000
09
#375000
19
b0 ]
b10000 ]
0K
0B
#380000
09
#385000
19
b0 ]
#390000
09
#395000
19
b0 [
0,
#400000
09
#405000
19
#410000
09
#415000
19
1O
12
#420000
09
#425000
19
b1111111111111111 ]
#430000
09
#435000
19
b0 ]
b1111111111111111 [
b1111111111111111 ]
10
1/
1.
1-
1,
1+
1*
1)
1(
1'
1&
1%
1$
1#
1"
1!
#440000
09
#445000
19
b0 ]
b1111111111111111 ]
#450000
09
#455000
19
b0 ]
b1111111111111111 ]
1N
1M
1L
1K
1J
1I
1H
1G
1F
1E
1D
1C
1B
1A
1@
02
#460000
09
#465000
19
b0 ]
#470000
09
#475000
19
b0 [
00
0/
0.
0-
0,
0+
0*
0)
0(
0'
0&
0%
0$
0#
0"
0!
#480000
09
#485000
19
1=
#490000
09
#495000
19
0S
1R
0N
0M
0L
0K
0J
0I
0H
0G
#500000
09
#505000
19
b10 \
b100000000 ]
11
#510000
09
#515000
19
b0 ]
b100000000 [
b100000000 ]
1(
#520000
09
#525000
19
b0 ]
b100000000 ]
#530000
09
#535000
19
b0 ]
b100000000 ]
0O
0F
0E
0D
0C
0B
0A
0@
#540000
09
#545000
19
b0 ]
b1 ]
01
#550000
09
#555000
19
b0 ]
b1 [
b1 ]
10
0(
#560000
09
#565000
19
b0 ]
b1 ]
#570000
09
#575000
19
b0 ]
b1 ]
1O
1G
1F
1E
1D
1C
1B
1A
1@
#580000
09
#585000
19
b0 ]
b100000001 ]
11
#590000
09
#595000
19
b0 ]
b100000001 [
b100000001 ]
1(
#600000
09
#605000
19
0=
b0 ]
b100000001 ]
#610000
09
#615000
19
b0 ]
b100000000 ]
0G
#620000
09
#625000
19
b0 ]
b100000000 [
b11111111 ]
01
00
#630000
09
#635000
19
b0 ]
b11111111 [
b11111111 ]
10
1/
1.
1-
1,
1+
1*
1)
0(
#640000
09
#645000
19
b0 ]
b11111111 ]
#650000
09
#655000
19
b0 ]
b11111111 ]
0O
0F
0E
0D
0C
0B
0A
0@
#660000
09
#665000
19
b0 ]
#670000
09
#675000
19
b0 [
00
0/
0.
0-
0,
0+
0*
0)
#680000
09
#685000
19
#690000
09
#695000
19
1O
1G
1F
1E
1D
1C
1B
1A
1@
#700000
09
#705000
19
b100000000 ]
11
#710000
09
#715000
19
b0 ]
b100000000 [
b100000000 ]
1(
#720000
09
#725000
19
b0 ]
b100000000 ]
#730000
09
#735000
19
1=
b0 ]
b100000000 ]
#740000
09
#745000
19
b0 ]
b100000001 ]
1S
0F
0E
0D
0C
0B
0A
0@
12
01
#750000
09
#755000
19
b0 ]
b100000001 [
b11 \
b1111111111111111 ]
10
#760000
09
#765000
19
b0 ]
b1111111111111111 [
b1111111111111111 ]
1/
1.
1-
1,
1+
1*
1)
1'
1&
1%
1$
1#
1"
1!
#770000
09
#775000
19
b0 ]
b1111111111111111 ]
#780000
09
#785000
19
b0 ]
b1111111111111111 ]
0S
0R
1Q
0O
0G
1F
1D
02
#790000
09
#795000
19
b0 ]
b100 \
b1011 ]
#800000
09
#805000
19
b0 ]
b1011 [
b1011 ]
0.
0,
0+
0*
0)
0(
0'
0&
0%
0$
0#
0"
0!
#810000
09
#815000
19
b0 ]
b1011 ]
#820000
09
#825000
19
b0 ]
b1011 ]
1G
1E
1C
1B
1A
1@
#830000
09
#835000
19
b0 ]
b100000000 ]
#840000
09
#845000
19
b0 ]
b100000000 [
b100000000 ]
00
0/
0-
1(
#850000
09
#855000
19
b0 ]
b100000000 ]
#860000
09
#865000
19
b0 ]
b100000000 ]
0G
0F
0E
0D
0C
0B
0A
0@
#870000
09
#875000
19
b0 ]
b1 ]
#880000
09
#885000
19
b0 ]
b1 [
b1 ]
10
0(
#890000
09
#895000
19
b0 ]
b1 ]
#900000
09
#905000
19
b0 ]
b1 ]
1S
1F
1D
#910000
09
#915000
19
b0 ]
b101 \
b1001 ]
#920000
09
#925000
19
b0 ]
b1001 [
b1001 ]
1-
#930000
09
#935000
19
b0 ]
b1001 ]
#940000
09
#945000
19
b0 ]
b1001 ]
0F
0D
#950000
09
#955000
19
b0 ]
b1111111111111111 ]
#960000
09
#965000
19
b0 ]
b1111111111111111 [
b1111111111111111 ]
1/
1.
1,
1+
1*
1)
1(
1'
1&
1%
1$
1#
1"
1!
#970000
09
#975000
19
b0 ]
b1111111111111111 ]
#980000
09
#985000
19
b0 ]
b1111111111111111 ]
0S
1R
1N
1L
#990000
09
#995000
19
b0 ]
b110 \
b1011 ]
#1000000
09
#1005000
19
b0 ]
b1011 [
b1011 ]
0.
0,
0+
0*
0)
0(
0'
0&
0%
0$
0#
0"
0!
#1010000
09
#1015000
19
b0 ]
b1011 ]
#1020000
09
#1025000
19
b0 ]
b1011 ]
1O
1M
1K
1J
1I
1H
#1030000
09
#1035000
19
b0 ]
b100000000 ]
#1040000
09
#1045000
19
b0 ]
b100000000 [
b100000000 ]
00
0/
0-
1(
#1050000
09
#1055000
19
b0 ]
b100000000 ]
#1060000
09
#1065000
19
b0 ]
b100000000 ]
0O
0N
0M
0L
0K
0J
0I
0H
#1070000
09
#1075000
19
b0 ]
b1 ]
#1080000
09
#1085000
19
b0 ]
b1 [
b1 ]
10
0(
#1090000
09
#1095000
19
b0 ]
b1 ]
#1100000
09
#1105000
19
b0 ]
b1 ]
1S
1N
1L
#1110000
09
#1115000
19
b0 ]
b111 \
b1001 ]
#1120000
09
#1125000
19
b0 ]
b1001 [
b1001 ]
1-
#1130000
09
#1135000
19
b0 ]
b1001 ]
#1140000
09
#1145000
19
b0 ]
b1001 ]
0N
0L
#1150000
09
#1155000
19
b0 ]
b1111111111111111 ]
#1160000
09
#1165000
19
b0 ]
b1111111111111111 [
b1111111111111111 ]
1/
1.
1,
1+
1*
1)
1(
1'
1&
1%
1$
1#
1"
1!
#1170000
09
#1175000
19
b0 ]
b1111111111111111 ]
#1180000
09
#1185000
19
b0 ]
b1111111111111111 ]
0S
0R
0Q
1P
1K
1C
#1190000
09
#1195000
19
b0 ]
b1000 \
1Y
#1200000
09
#1205000
19
1V
0Y
b0 [
1Y
14
00
0/
0.
0-
0,
0+
0*
0)
0(
0'
0&
0%
0$
0#
0"
0!
#1210000
09
#1215000
19
0Y
1Y
#1220000
09
#1225000
19
0Y
1Y
0C
1B
#1230000
09
#1235000
19
0Y
1W
#1240000
09
#1245000
19
1T
0V
0W
1W
13
04
#1250000
09
#1255000
19
0W
1W
#1260000
09
#1265000
19
0W
1W
0K
1J
1C
0B
#1270000
09
#1275000
19
0W
1X
#1280000
09
#1285000
19
0T
1U
0X
1X
03
15
#1290000
09
#1295000
19
0X
1X
#1300000
09
#1305000
19
0X
1X
1S
0J
0C
#1310000
09
#1315000
19
0X
b1001 \
b1 `
b1 a
#1320000
09
#1325000
19
0U
b0 `
b0 a
b1 ]
b10 a
05
#1330000
09
#1335000
19
b0 ]
b1 [
b0 a
b1 `
b1 a
10
#1340000
09
#1345000
19
b0 `
b0 [
b0 a
b1 ]
b10 a
1O
1N
1M
1L
1K
1J
1I
1H
1G
1F
1E
1D
1C
1B
1A
1@
00
#1350000
09
#1355000
19
b0 ]
b1 [
b0 a
b1 a
10
#1360000
09
#1365000
19
b0 [
b0 a
b10 a
00
#1370000
09
#1375000
19
b0 a
b1 a
#1380000
09
#1385000
19
b0 a
b10 a
0G
0F
0E
0D
0C
0B
0A
0@
#1390000
09
#1395000
19
b0 a
b100000000 `
b1 a
#1400000
09
#1405000
19
b0 `
b0 a
b100000000 ]
b10 a
#1410000
09
#1415000
19
b0 ]
b100000000 [
b0 a
b100000000 `
b1 a
1(
#1420000
09
#1425000
19
b0 `
b0 [
b0 a
b100000000 ]
b10 a
0O
0N
0M
0L
0K
0J
0I
0H
1G
1F
1E
1D
1C
1B
1A
1@
0(
#1430000
09
#1435000
19
b0 ]
b100000000 [
b0 a
b100000000 `
b1 a
1(
#1440000
09
#1445000
19
b0 `
b0 [
b0 a
b100000000 ]
b10 a
0(
#1450000
09
#1455000
19
b0 ]
b100000000 [
b0 a
b100000000 `
b1 a
1(
#1460000
09
#1465000
19
b0 `
b0 [
b0 a
b100000000 ]
b10 a
1O
0F
0E
0D
0C
0B
0A
0@
0(
#1470000
09
#1475000
19
b0 ]
b100000000 [
b0 a
b100 `
b1 a
1(
#1480000
09
#1485000
19
b0 `
b0 [
b0 a
b100 ]
b10 a
0(
#1490000
09
#1495000
19
b0 ]
b100 [
b0 a
b100 `
b1 a
1.
#1500000
09
#1505000
19
b0 `
b0 [
b0 a
b100 ]
b10 a
1N
1M
1L
1F
1E
1D
0.
#1510000
09
#1515000
19
b0 ]
b100 [
b0 a
b100000000 `
b1 a
1.
#1520000
09
#1525000
19
b0 `
b0 [
b0 a
b100000000 ]
b10 a
0.
#1530000
09
#1535000
19
b0 ]
b100000000 [
b0 a
b100000000 `
b1 a
1(
#1540000
09
#1545000
19
b0 `
b0 [
b0 a
b100000000 ]
b10 a
0N
0L
1K
1I
0G
0E
1B
1@
0(
#1550000
09
#1555000
19
b0 ]
b100000000 [
b0 a
b11100101110010 `
b1 a
1(
#1560000
09
#1565000
19
b0 `
b0 [
b0 a
b11100101110010 ]
b10 a
0(
#1570000
09
#1575000
19
b0 ]
b11100101110010 [
b0 a
b11100101110010 `
b1 a
1/
1,
1+
1*
1(
1%
1$
1#
#1580000
09
#1585000
19
b0 `
b0 [
b0 a
b11100101110010 ]
b10 a
0S
1R
0O
0M
0K
0I
0F
0D
0B
0@
0/
0,
0+
0*
0(
0%
0$
0#
#1590000
09
#1595000
19
b0 ]
b11100101110010 [
b0 a
b1010 \
1/
1,
1+
1*
1(
1%
1$
1#
#1600000
09
#1605000
19
b0 [
b1 a
0/
0,
0+
0*
0(
0%
0$
0#
#1610000
09
#1615000
19
b0 a
b10 a
#1620000
09
#1625000
19
b0 a
b1 a
1N
1@
#1630000
09
#1635000
19
b0 a
b10 a
#1640000
09
#1645000
19
b0 a
b1000000000 `
b1 a
#1650000
09
#1655000
19
b0 `
b0 a
b1000000000 ]
b10 a
#1660000
09
#1665000
19
b0 ]
b1000000000 [
b0 a
b1000000000 `
b1 a
0N
1G
1F
1E
1D
1C
1B
1A
1'
#1670000
09
#1675000
19
b0 `
b0 [
b0 a
b1000000000 ]
b10 a
0'
#1680000
09
#1685000
19
b0 ]
b1000000000 [
b0 a
b1 a
1'
#1690000
09
#1695000
19
b0 [
b0 a
b10 a
0'
#1700000
09
#1705000
19
b0 a
b1 a
1O
#1710000
09
#1715000
19
b0 a
b10 a
#1720000
09
#1725000
19
b0 a
b111111110 `
b1 a
#1730000
09
#1735000
19
b0 `
b0 a
b111111110 ]
b10 a
#1740000
09
#1745000
19
b0 ]
b111111110 [
b0 a
b111111110 `
b1 a
1N
1M
1L
1K
1J
1I
1H
1/
1.
1-
1,
1+
1*
1)
1(
#1750000
09
#1755000
19
b0 `
b0 [
b0 a
b111111110 ]
b10 a
0/
0.
0-
0,
0+
0*
0)
0(
#1760000
09
#1765000
19
b0 ]
b111111110 [
b0 a
b1111110000000010 `
b1 a
1/
1.
1-
1,
1+
1*
1)
1(
#1770000
09
#1775000
19
b0 `
b0 [
b0 a
b1111110000000010 ]
b10 a
0/
0.
0-
0,
0+
0*
0)
0(
#1780000
09
#1785000
19
b0 ]
b1111110000000010 [
b0 a
b1111110000000010 `
b1 a
1S
0O
0N
0M
0L
0K
0J
0I
0H
0G
0F
0E
0D
0C
0B
0A
0@
1/
1&
1%
1$
1#
1"
1!
#1790000
09
#1795000
19
b0 `
b0 [
b0 a
b1011 \
1Y
0/
0&
0%
0$
0#
0"
0!
#1800000
09
#1805000
19
1V
0Y
1Y
14
#1810000
09
#1815000
19
0Y
1Y
#1820000
09
#1825000
19
0Y
1Y
1I
1A
#1830000
09
#1835000
19
0Y
1Y
b10000000 ]
12
#1840000
09
#1845000
19
0Y
b0 ]
b10000000 [
1Y
b10000000 ]
1)
#1850000
09
#1855000
19
0Y
b0 ]
1Y
b10000000 ]
#1860000
09
#1865000
19
0Y
b0 ]
1Y
b10000000 ]
1O
0I
1G
1F
1E
1D
1C
1B
#1870000
09
#1875000
19
0Y
b0 ]
1W
b10000000 ]
#1880000
09
#1885000
19
1T
0V
0W
b0 ]
1W
b10000000 ]
13
04
#1890000
09
#1895000
19
0W
b0 ]
1W
b10000000 ]
#1900000
09
#1905000
19
0W
b0 ]
1W
b10000000 ]
1N
1M
1L
1K
1J
1I
#1910000
09
#1915000
19
0W
b0 ]
1Y
b11111110 ]
#1920000
09
#1925000
19
0T
1V
0Y
b0 ]
b11111110 [
1Y
b11111110 ]
03
14
1/
1.
1-
1,
1+
1*
#1930000
09
#1935000
19
0Y
b0 ]
1Y
b11111110 ]
#1940000
09
#1945000
19
0Y
b0 ]
1Y
b11111110 ]
0N
0M
0L
0K
0J
0I
0F
0E
0D
0C
0B
0A
#1950000
09
#1955000
19
0Y
b0 ]
1Y
b10 ]
02
#1960000
09
#1965000
19
0Y
b0 ]
b10 [
1Y
b10 ]
0.
0-
0,
0+
0*
0)
#1970000
09
#1975000
19
0Y
b0 ]
1Y
b10 ]
#1980000
09
#1985000
19
0Y
b0 ]
1Y
b10 ]
0O
1F
1E
1D
1C
1B
1A
#1990000
09
#1995000
19
0Y
b0 ]
1W
b1111111 ]
#2000000
09
#2005000
19
1T
0V
0W
b0 ]
b1111111 [
1W
b1111111 ]
13
04
10
1.
1-
1,
1+
1*
#2010000
09
#2015000
19
0W
b0 ]
1W
b1111111 ]
#2020000
09
#2025000
19
0W
b0 ]
1W
b1111111 ]
1H
0G
0F
0E
0D
0C
0B
0A
1@
12
#2030000
09
#2035000
19
0W
b0 ]
1Y
b1111111100000000 ]
#2040000
09
#2045000
19
0T
1V
0Y
b0 ]
b1111111100000000 [
1Y
b1111111100000000 ]
03
14
00
0/
0.
0-
0,
0+
0*
1(
1'
1&
1%
1$
1#
1"
1!
#2050000
09
#2055000
19
0Y
b0 ]
1Y
b1111111100000000 ]
#2060000
09
#2065000
19
0Y
b0 ]
1Y
b1111111100000000 ]
1O
1N
1M
1L
1K
1J
1I
1G
1F
1E
1D
1C
1B
1A
#2070000
09
#2075000
19
0Y
b0 ]
1Y
b1111111111111110 ]
02
#2080000
09
#2085000
19
0Y
b0 ]
b1111111111111110 [
1Y
b1111111111111110 ]
1/
1.
1-
1,
1+
1*
1)
#2090000
09
#2095000
19
0Y
b0 ]
1Y
b1111111111111110 ]
#2100000
09
#2105000
19
0Y
b0 ]
1Y
b1111111111111110 ]
0G
0F
0E
0D
0C
0B
0A
#2110000
09
#2115000
19
0Y
b0 ]
1X
b1111111101111111 ]
12
#2120000
09
#2125000
19
1U
0V
0X
b0 ]
b1111111101111111 [
1X
b1111111101111111 ]
15
04
10
0)
#2130000
09
#2135000
19
0X
b0 ]
1X
b1111111101111111 ]
#2140000
09
#2145000
19
0X
b0 ]
1X
b1111111101111111 ]
1F
1E
1D
1C
1B
1A
#2150000
09
#2155000
19
0X
b0 ]
1X
b1111111111111101 ]
02
#2160000
09
#2165000
19
0X
b0 ]
b1111111111111101 [
1X
b1111111111111101 ]
0/
1)
#2170000
09
#2175000
19
0X
b0 ]
1X
b1111111111111101 ]
#2180000
09
#2185000
19
0X
b0 ]
1X
b1111111111111101 ]
0O
0N
0M
0L
0K
0J
0I
1G
0@
#2190000
09
#2195000
19
0X
b0 ]
1W
b1111111111111111 ]
#2200000
09
#2205000
19
1T
0U
0W
b0 ]
b1111111111111111 [
1W
b1111111111111111 ]
13
05
1/
#2210000
09
#2215000
19
0W
b0 ]
1W
b1111111111111111 ]
#2220000
09
#2225000
19
0W
b0 ]
1W
b1111111111111111 ]
1O
1N
1M
1L
1K
1J
1I
#2230000
09
#2235000
19
0W
b0 ]
1W
b1111110 ]
#2240000
09
#2245000
19
0W
b0 ]
b1111110 [
1W
b1111110 ]
00
0)
0(
0'
0&
0%
0$
0#
0"
0!
#2250000
09
#2255000
19
0W
b0 ]
1W
b1111110 ]
#2260000
09
#2265000
19
0W
b0 ]
1W
b1111110 ]
0F
0E
0D
0C
0B
0A
#2270000
09
#2275000
19
0W
b0 ]
1W
#2280000
09
#2285000
19
0W
b0 [
1W
0/
0.
0-
0,
0+
0*
#2290000
09
#2295000
19
0W
1W
#2300000
09
#2305000
19
0W
1W
0S
0R
1Q
0N
0M
0L
0K
0J
0I
0H
1F
1E
1D
1C
1B
1A
#2310000
09
#2315000
19
0W
b1100 \
1W
b1111110 ]
#2320000
09
#2325000
19
0W
b0 ]
b1111110 [
1W
b1111110 ]
1/
1.
1-
1,
1+
1*
#2330000
09
#2335000
19
0W
b0 ]
1W
b1111110 ]
#2340000
09
#2345000
19
0W
b0 ]
1W
b1111110 ]
0G
0F
0E
0D
0C
0B
0A
1@
12
#2350000
09
#2355000
19
0W
b0 ]
1X
b1111111101111111 ]
#2360000
09
#2365000
19
0T
1U
0X
b0 ]
b1111111101111111 [
1X
b1111111101111111 ]
03
15
10
1(
1'
1&
1%
1$
1#
1"
1!
#2370000
09
#2375000
19
0X
b0 ]
1X
b1111111101111111 ]
#2380000
09
#2385000
19
0X
b0 ]
1X
b1111111101111111 ]
1N
1M
1L
1K
1J
1I
1H
1G
1F
1E
1D
1C
1B
1A
0@
02
#2390000
09
#2395000
19
0X
b0 ]
1W
b10000000 ]
12
#2400000
09
#2405000
19
1T
0U
0W
b0 ]
b10000000 [
1W
b10000000 ]
13
05
00
0/
0.
0-
0,
0+
0*
1)
0(
0'
0&
0%
0$
0#
0"
0!
#2410000
09
#2415000
19
0W
b0 ]
1W
b10000000 ]
#2420000
09
#2425000
19
0W
b0 ]
1W
b10000000 ]
0N
0M
0L
0K
0J
0I
0H
0G
0F
0E
0D
0C
0B
0A
1@
02
#2430000
09
#2435000
19
0W
b0 ]
1X
b1111111101111111 ]
12
#2440000
09
#2445000
19
0T
1U
0X
b0 ]
b1111111101111111 [
1X
b1111111101111111 ]
03
15
10
1/
1.
1-
1,
1+
1*
0)
1(
1'
1&
1%
1$
1#
1"
1!
#2450000
09
#2455000
19
0X
b0 ]
1X
b1111111101111111 ]
#2460000
09
#2465000
19
0X
b0 ]
1X
b1111111101111111 ]
0@
02
#2470000
09
#2475000
19
0X
b0 ]
1X
b1111111111111111 ]
#2480000
09
#2485000
19
0X
b0 ]
b1111111111111111 [
1X
b1111111111111111 ]
1)
#2490000
09
#2495000
19
0X
b0 ]
1X
b1111111111111111 ]
#2500000
09
#2505000
19
0X
b0 ]
1X
b1111111111111111 ]
1N
1M
1L
1K
1J
1I
1H
12
#2510000
09
#2515000
19
0X
b0 ]
1W
b1 ]
02
#2520000
09
#2525000
19
1T
0U
0W
b0 ]
b1 [
1W
b1 ]
13
05
0/
0.
0-
0,
0+
0*
0)
0(
0'
0&
0%
0$
0#
0"
0!
#2530000
09
#2535000
19
0W
b0 ]
1W
b1 ]
#2540000
09
#2545000
19
0W
b0 ]
1W
b1 ]
0N
0M
0L
0K
0J
0I
0H
1G
#2550000
09
#2555000
19
0W
b0 ]
1Y
#2560000
09
#2565000
19
0T
1V
0Y
b0 [
1Y
03
14
00
#2570000
09
#2575000
19
0Y
1Y
#2580000
09
#2585000
19
0Y
1Y
0O
1H
0G
1@
#2590000
09
#2595000
19
0Y
1Y
#2600000
09
#2605000
19
0Y
1Y
#2610000
09
#2615000
19
0Y
1Y
#2620000
09
#2625000
19
0Y
1Y
1S
#2630000
09
#2635000
19
0Y
b1101 \
#2640000
09
#2645000
19
0V
04
#2650000
09
#2655000
19
#2660000
09
#2665000
19
0?
0S
0Q
0P
1O
1K
0H
1G
1F
1E
1D
0@
#2670000
09
#2675000
19
1b
b0 \
b100000 ]
#2680000
09
#2685000
19
b0 ]
b100000 [
b100000 ]
1Z
1+
16
#2690000
09
#2695000
19
b0 ]
b100000 ]
#2700000
09
#2705000
19
b0 ]
b100000 ]
1S
0O
0G
0F
0E
0D
1B
#2710000
09
#2715000
19
b0 ]
b1 \
b10000 ]
#2720000
09
#2725000
19
b0 ]
b10000 [
b10000 ]
1,
0+
#2730000
09
#2735000
19
b0 ]
b10000 ]
#2740000
09
#2745000
19
b0 ]
b10000 ]
0S
1R
1O
0K
1F
1E
1D
1C
1A
1@
#2750000
09
#2755000
19
b0 ]
b10 \
b100000000 ]
11
#2760000
09
#2765000
19
b0 ]
b100000000 [
b100000000 ]
0,
1(
#2770000
09
#2775000
19
b0 ]
b100000000 ]
#2780000
09
#2785000
19
b0 ]
b100000000 ]
1S
1G
0F
0E
0D
0C
0B
0A
0@
12
01
#2790000
09
#2795000
19
b0 ]
b11 \
b1111111111111111 ]
#2800000
09
#2805000
19
b0 ]
b1111111111111111 [
b1111111111111111 ]
10
1/
1.
1-
1,
1+
1*
1)
1'
1&
1%
1$
1#
1"
1!
#2810000
09
#2815000
19
b0 ]
b1111111111111111 ]
#2820000
09
#2825000
19
b0 ]
b1111111111111111 ]
1?
0>
0S
0R
1Q
0O
0G
1F
1D
02
#2830000
09
#2835000
19
b0 ]
b100 \
b1011 ]
#2840000
09
#2845000
19
b0 ]
b1011 [
b1011 ]
0.
0,
0+
0*
0)
0(
0'
0&
0%
0$
0#
0"
0!
#2850000
09
#2855000
19
b0 ]
b1011 ]
#2860000
09
#2865000
19
b0 ]
b1011 ]
1S
#2870000
09
#2875000
19
b0 ]
b101 \
b1001 ]
#2880000
09
#2885000
19
b0 ]
b1001 [
b1001 ]
0/
#2890000
09
#2895000
19
b0 ]
b1001 ]
#2900000
09
#2905000
19
b0 ]
b1001 ]
0?
1>
1R
#2910000
09
#2915000
19
b0 ]
b111 \
b1111111111111111 ]
#2920000
09
#2925000
19
b0 ]
b1111111111111111 [
b1111111111111111 ]
1/
1.
1,
1+
1*
1)
1(
1'
1&
1%
1$
1#
1"
1!
#2930000
09
#2935000
19
b0 ]
b1111111111111111 ]
#2940000
09
#2945000
19
b0 ]
b1111111111111111 ]
0S
0F
0D
#2950000
09
#2955000
19
b0 ]
b110 \
b1 ]
#2960000
09
#2965000
19
b0 ]
b1 [
b1 ]
0/
0.
0-
0,
0+
0*
0)
0(
0'
0&
0%
0$
0#
0"
0!
#2970000
09
#2975000
19
b0 ]
b1 ]
#2980000
09
#2985000
19
b0 ]
b1 ]
0R
0Q
1P
1J
1C
#2990000
09
#2995000
19
b0 ]
b1000 \
1X
#3000000
09
#3005000
19
1U
0X
b0 [
1X
15
00
#3010000
09
#3015000
19
0X
1X
#3020000
09
#3025000
19
0X
1X
1S
1O
1N
1M
1L
1K
1I
1H
0C
#3030000
09
#3035000
19
0X
b1001 \
b100000000 `
1_
b1 a
#3040000
09
#3045000
19
0U
b0 `
0_
b0 a
b100000000 ]
1^
b10 a
05
#3050000
09
#3055000
19
b0 ]
b100000000 [
b0 a
0^
b100000000 `
1_
b1 a
1(
#3060000
09
#3065000
19
b0 `
0_
b0 [
b0 a
b100000000 ]
1^
b10 a
0S
1R
1G
1F
1E
1D
1C
1B
1A
1@
0(
#3070000
09
#3075000
19
b0 ]
b100000000 [
b0 a
0^
b1010 \
b1111110000000010 `
1_
1(
#3080000
09
#3085000
19
b0 `
0_
b0 [
b1111110000000010 ]
1^
b1111110000000010 `
1_
b1 a
0(
#3090000
09
#3095000
19
b0 ]
b0 `
0_
b1111110000000010 [
b0 a
0^
b1111110000000010 ]
1^
b10 a
1/
1&
1%
1$
1#
1"
1!
#3100000
09
#3105000
19
b0 ]
b0 a
0^
b1111110000000010 `
1_
b1 a
1S
0O
0N
0M
0L
0K
0J
0I
0G
0F
0E
0D
0C
0B
0A
12
#3110000
09
#3115000
19
b0 `
0_
b0 [
b0 a
b1011 \
1Y
b1111111100000000 ]
0/
0&
0%
0$
0#
0"
0!
#3120000
09
